{
  "href": "https://api.ebay.com/buy/browse/v1/item_summary/search?q=laptop&limit=10&offset=0",
  "total": 1040966,
  "next": "https://api.ebay.com/buy/browse/v1/item_summary/search?q=laptop&limit=10&offset=10",
  "limit": 10,
  "offset": 0,
  "itemSummaries": [
    {
      "itemId": "v1|276709583737|0",
      "title": "Acer Swift Go 14\" Laptop Intel Core Ultra 7 155H 16GB RAM 1TB SSD Refurbished",
      "leafCategoryIds": [],
      "categories": [],
      "image": {},
      "price": {},
      "itemHref": "https://api.ebay.com/buy/browse/v1/item/v1%7C276709583737%7C0",
      "seller": {},
      "marketingPrice": {},
      "condition": "Certified - Refurbished",
      "conditionId": "2000",
      "thumbnailImages": [],
      "shippingOptions": [],
      "buyingOptions": [],
      "itemWebUrl": "https://www.ebay.com/itm/276709583737?_skw=laptop&hash=item406d2d2b79:g:m3YAAeSwJJZpOyMs",
      "itemLocation": {},
      "additionalImages": [],
      "adultOnly": false,
      "legacyItemId": "276709583737",
      "availableCoupons": false,
      "itemOriginDate": "2024-08-26T22:35:27.000Z",
      "itemCreationDate": "2024-10-30T23:21:59.000Z",
      "topRatedBuyingExperience": false,
      "priorityListing": false,
      "listingMarketplaceId": "EBAY_US"
    },
    {
      "itemId": "v1|318098441421|0",
      "title": "New 15.6\" IPS Laptop Intel N5100 16GB RAM 1TB SSD Win11 Pro Wi-Fi 6 Office 365",
      "leafCategoryIds": [],
      "categories": [],
      "image": {},
      "price": {},
      "itemHref": "https://api.ebay.com/buy/browse/v1/item/v1%7C318098441421%7C0",
      "seller": {},
      "condition": "New",
      "conditionId": "1000",
      "thumbnailImages": [],
      "shippingOptions": [],
      "buyingOptions": [],
      "itemWebUrl": "https://www.ebay.com/itm/318098441421?_skw=laptop&hash=item4a102504cd:g:oMEAAeSwdj5pz1RA&amdata=enc%3AAQALAAAA4ACCtXRWQnOEpyOqnQQ8KGZ1hkYH426PnBiwmUKuAd9IOgae3ia%2BrIdpspwz4R723QOyPqu6eD86ZTWGVC4V7A%2FTilg2YmJOlVIBR19UtkpIaYlIVJe1hanDuMZlhj8O%2BHnJcxhhZxcm%2Fq%2BQPUQJqC%2FzvK4cwpEJrMPqkHrwbYtgcoRUh8b4mgu3Z8reL9DpfPGoAwNtu%2FL4U93lqcnNEyVENGHUin79kSnnL2JWQZ%2F3IDb6FeA2nwnY3OgbA9%2BYnrdPYIveH4UHLwfGPVvrVYKxE1lWgFsn5rfkuMG8ums3",
      "itemLocation": {},
      "additionalImages": [],
      "adultOnly": false,
      "legacyItemId": "318098441421",
      "availableCoupons": false,
      "itemOriginDate": "2026-04-03T05:46:54.000Z",
      "itemCreationDate": "2026-04-03T05:46:54.000Z",
      "topRatedBuyingExperience": false,
      "priorityListing": true,
      "listingMarketplaceId": "EBAY_US"
    },
    {
      "itemId": "v1|256879744174|557422176896",
      "title": "Dell Latitude 15.6” FHD Core i5 Laptop PC Up To 32GB RAM 1TB SSD Windows 11",
      "itemGroupHref": "https://api.ebay.com/buy/browse/v1/item/get_items_by_item_group?item_group_id=256879744174",
      "leafCategoryIds": [],
      "categories": [],
      "image": {},
      "price": {},
      "itemGroupType": "SELLER_DEFINED_VARIATIONS",
      "itemHref": "https://api.ebay.com/buy/browse/v1/item/v1%7C256879744174%7C557422176896",
      "seller": {},
      "condition": "Good - Refurbished",
      "conditionId": "2030",
      "thumbnailImages": [],
      "shippingOptions": [],
      "buyingOptions": [],
      "itemWebUrl": "https://www.ebay.com/itm/256879744174?_skw=laptop&hash=item3bcf39d4ae:g:kSsAAeSw0r5pZ8WR&amdata=enc%3AAQALAAAA4ACCtXRWQnOEpyOqnQQ8KGby7Z3ZZFOscG1G4gf7boK13o%2B5LAYUJOfwKjludM5SMxztMWFZhDOKN8fwDacxOAHbu2uYqwAPbiW3QUdkcea%2F2zF8N9gmkk0wUEysv8rl02WBNF0%2FpoO5GSmE3ukDCV5WIBEUpBTDG%2BwNx%2B9QNhXGi2xz3y%2FHNuWmK%2Bt6K3OQMWAor7asgImGcwe1wLdWkh6nl10yPjXDO1lzujz36XZmWHfkSUlWFwJkI3WTUi3Ef3bUWiuRMScyowroWrWwIpPNhykvrTtrLpsgyiEMYLwR",
      "itemLocation": {},
      "additionalImages": [],
      "adultOnly": false,
      "legacyItemId": "256879744174",
      "availableCoupons": false,
      "itemOriginDate": "2025-04-02T14:32:55.000Z",
      "itemCreationDate": "2025-04-02T14:32:55.000Z",
      "topRatedBuyingExperience": false,
      "priorityListing": true,
      "listingMarketplaceId": "EBAY_US"
    },
    {
      "itemId": "v1|327082122256|0",
      "title": "HP - 15.6\" Full HD Touch-Screen Laptop - Intel Core i7 1355U 2023 - 16GB Memo...",
      "leafCategoryIds": [],
      "categories": [],
      "image": {},
      "price": {},
      "itemHref": "https://api.ebay.com/buy/browse/v1/item/v1%7C327082122256%7C0",
      "seller": {},
      "marketingPrice": {},
      "condition": "New",
      "conditionId": "1000",
      "thumbnailImages": [],
      "shippingOptions": [],
      "buyingOptions": [],
      "itemWebUrl": "https://www.ebay.com/itm/327082122256?_skw=laptop&hash=item4c279d1c10:g:A0EAAeSwRXppzuMg",
      "itemLocation": {},
      "additionalImages": [],
      "adultOnly": false,
      "priceDisplayCondition": "ONLY_SHOW_ON_REQUEST",
      "legacyItemId": "327082122256",
      "availableCoupons": false,
      "itemOriginDate": "2025-06-17T19:15:04.000Z",
      "itemCreationDate": "2026-04-02T21:15:35.000Z",
      "topRatedBuyingExperience": false,
      "priorityListing": false,
      "listingMarketplaceId": "EBAY_US"
    },
    {
      "itemId": "v1|277352801036|0",
      "title": "Acer Predator Helios Neo AI 16S Gaming Laptop RTX 5070 Ti Certified Refurbished",
      "leafCategoryIds": [],
      "categories": [],
      "image": {},
      "price": {},
      "itemHref": "https://api.ebay.com/buy/browse/v1/item/v1%7C277352801036%7C0",
      "seller": {},
      "marketingPrice": {},
      "condition": "Certified - Refurbished",
      "conditionId": "2000",
      "thumbnailImages": [],
      "shippingOptions": [],
      "buyingOptions": [],
      "itemWebUrl": "https://www.ebay.com/itm/277352801036?_skw=laptop&hash=item409383e30c:g:vHUAAeSwg0ZphMv7",
      "itemLocation": {},
      "adultOnly": false,
      "legacyItemId": "277352801036",
      "availableCoupons": false,
      "itemOriginDate": "2025-08-29T21:15:09.000Z",
      "itemCreationDate": "2025-08-29T21:15:09.000Z",
      "topRatedBuyingExperience": false,
      "priorityListing": false,
      "listingMarketplaceId": "EBAY_US"
    },
    {
      "itemId": "v1|127468255645|0",
      "title": "Dell Chromebook 3100 (11.6\", Intel Celeron, 4GB RAM, 16GB, ChromeOS)  NO Charger",
      "leafCategoryIds": [],
      "categories": [],
      "image": {},
      "price": {},
      "itemHref": "https://api.ebay.com/buy/browse/v1/item/v1%7C127468255645%7C0",
      "seller": {},
      "condition": "Used",
      "conditionId": "3000",
      "thumbnailImages": [],
      "shippingOptions": [],
      "buyingOptions": [],
      "itemWebUrl": "https://www.ebay.com/itm/127468255645?_skw=laptop&hash=item1dadb3399d:g:te4AAeSw9pJoYIPI",
      "itemLocation": {},
      "additionalImages": [],
      "adultOnly": false,
      "legacyItemId": "127468255645",
      "availableCoupons": false,
      "itemOriginDate": "2025-06-29T00:17:59.000Z",
      "itemCreationDate": "2025-11-03T16:05:13.000Z",
      "topRatedBuyingExperience": false,
      "priorityListing": false,
      "listingMarketplaceId": "EBAY_US"
    },
    {
      "itemId": "v1|277623301371|0",
      "title": "Acer Aspire 3 15.6\" Laptop FHD Ryzen 5 7520U 16GB LPDDR5 RAM 1TB SSD Refurbished",
      "leafCategoryIds": [],
      "categories": [],
      "image": {},
      "price": {},
      "itemHref": "https://api.ebay.com/buy/browse/v1/item/v1%7C277623301371%7C0",
      "seller": {},
      "marketingPrice": {},
      "condition": "Certified - Refurbished",
      "conditionId": "2000",
      "thumbnailImages": [],
      "shippingOptions": [],
      "buyingOptions": [],
      "itemWebUrl": "https://www.ebay.com/itm/277623301371?_skw=laptop&hash=item40a3a364fb:g:Er0AAeSwHsVpWCVc",
      "itemLocation": {},
      "additionalImages": [],
      "adultOnly": false,
      "legacyItemId": "277623301371",
      "availableCoupons": false,
      "itemOriginDate": "2026-01-02T20:01:47.000Z",
      "itemCreationDate": "2026-01-02T20:01:47.000Z",
      "topRatedBuyingExperience": false,
      "priorityListing": false,
      "listingMarketplaceId": "EBAY_US"
    },
    {
      "itemId": "v1|256696935114|0",
      "title": "HP ProBook Touchscreen Laptop 11.6\" Core i3 8GB RAM 128GB SSD Win 11 Pro HDMI",
      "leafCategoryIds": [],
      "categories": [],
      "image": {},
      "price": {},
      "itemHref": "https://api.ebay.com/buy/browse/v1/item/v1%7C256696935114%7C0",
      "seller": {},
      "condition": "Good - Refurbished",
      "conditionId": "2030",
      "thumbnailImages": [],
      "shippingOptions": [],
      "buyingOptions": [],
      "itemWebUrl": "https://www.ebay.com/itm/256696935114?_skw=laptop&hash=item3bc45462ca:g:CuUAAeSwxGxpw-Qi",
      "itemLocation": {},
      "additionalImages": [],
      "adultOnly": false,
      "legacyItemId": "256696935114",
      "availableCoupons": false,
      "itemOriginDate": "2024-10-31T15:10:17.000Z",
      "itemCreationDate": "2024-10-31T15:10:17.000Z",
      "topRatedBuyingExperience": false,
      "priorityListing": false,
      "listingMarketplaceId": "EBAY_US"
    },
    {
      "itemId": "v1|117118457767|0",
      "title": "🔥 Dell Latitude E5430 Laptop i5 16GB RAM 128GB SSD Win 11 Pro Office DVD HDMI",
      "leafCategoryIds": [],
      "categories": [],
      "image": {},
      "price": {},
      "itemHref": "https://api.ebay.com/buy/browse/v1/item/v1%7C117118457767%7C0",
      "seller": {},
      "condition": "Used",
      "conditionId": "3000",
      "thumbnailImages": [],
      "shippingOptions": [],
      "buyingOptions": [],
      "itemWebUrl": "https://www.ebay.com/itm/117118457767?_skw=laptop&hash=item1b44cdd7a7:g:bzIAAeSwyBZpy~lP&amdata=enc%3AAQALAAAA4ACCtXRWQnOEpyOqnQQ8KGbcbmCJMHpxwvjhdbgkhCW0Zmu4IyMlcAM9c0mF6fiwpaW%2BHJNOeJXywGUvJm4%2BlwXvX38xNZQf0fbJgK5Fu7X8cWkK9smHtGo1vNQCcD6zsiipcHPulC4wjSVRa%2BkRJTDCoLOkgrpgDRWnMExr%2FDHgrkD%2FV1ljhZwkrZXM6vMPz9Q0iPHN21PYrs4YHsWoRnS%2BqJYGbReWhyfBdFkoymeZD6lsfDQD07cqBF%2Bu%2FGLTQGFUqQWp5f7iRjqdSpSjX798c9sboOJWB5BtPhI1PNXt",
      "itemLocation": {},
      "additionalImages": [],
      "adultOnly": false,
      "legacyItemId": "117118457767",
      "availableCoupons": false,
      "itemOriginDate": "2026-03-31T16:46:38.000Z",
      "itemCreationDate": "2026-03-31T16:46:38.000Z",
      "topRatedBuyingExperience": false,
      "priorityListing": true,
      "listingMarketplaceId": "EBAY_US"
    },
    {
      "itemId": "v1|327072367010|0",
      "title": "Dell Latitude 3380 13\" Laptop Intel i5-7200U 4GB RAM 128GB SSD Win11 TOUCHSCREEN",
      "leafCategoryIds": [],
      "categories": [],
      "image": {},
      "price": {},
      "itemHref": "https://api.ebay.com/buy/browse/v1/item/v1%7C327072367010%7C0",
      "seller": {},
      "condition": "Used",
      "conditionId": "3000",
      "thumbnailImages": [],
      "shippingOptions": [],
      "buyingOptions": [],
      "itemWebUrl": "https://www.ebay.com/itm/327072367010?_skw=laptop&hash=item4c270841a2:g:nUAAAeSwmFBpxzP0&amdata=enc%3AAQALAAAA4ACCtXRWQnOEpyOqnQQ8KGaabTPU2%2BmV24ChfRRUui9Fsrw%2BpnFHy1oDgcKhA29eS%2FSO%2BmMYyNYgDecKF1DmJTu9S6NryjFXkBElNpCCevXoCZ9eMBmoWZhDzmRLr%2FSH5qZdwP2UFZg9VUeqhCaM8SXDxSdaD2R1eW4FmE3vbQ%2FYIrO5ii%2BVGTqI60H4mJdsnI35KgmZvsH14nVP6EmOk%2F5x4c9A87i%2F3JKTmhReJ5e1v%2B14Q4O56HeGmIaTrWsHWDZ3jzBChwUUjb4JpEWewTVJaxaS%2Bsgo9F6ZHlT8%2FVcT",
      "itemLocation": {},
      "additionalImages": [],
      "adultOnly": false,
      "legacyItemId": "327072367010",
      "availableCoupons": false,
      "itemOriginDate": "2026-03-28T01:54:12.000Z",
      "itemCreationDate": "2026-03-28T01:54:12.000Z",
      "topRatedBuyingExperience": false,
      "priorityListing": true,
      "listingMarketplaceId": "EBAY_US"
    }
  ]
}